xaxis,Experiment,model
272.882142857143,0.0497512437810948,0.0692367810648267
273.239285714286,0.0497512437810948,0.072091612839321
273.551785714286,0.0696517412935334,0.0746779069313799
273.507142857143,0.119402985074627,0.074305341387142
273.819642857143,0.0447761194029854,0.0769715754279112
273.953571428571,0.0696517412935334,0.0781467926815779
274.444642857143,0.0447761194029854,0.0825860686952814
274.846428571429,0.0497512437810948,0.0863906342342533
275.560714285714,0.0746268656716428,0.0935288429587805
276.364285714286,0.0597014925373137,0.102182344161301
276.721428571429,0.0746268656716428,0.106260043730121
276.855357142857,0.144278606965175,0.107829100313178
276.096428571429,0.139303482587065,0.0992161255110833
275.917857142857,0.169154228855722,0.0972894404472571
277.391071428571,0.18407960199005,0.114318678682662
279.444642857143,0.303482587064677,0.142725735251661
279.846428571429,0.303482587064677,0.149001985904658
279.667857142857,0.124378109452737,0.146181454944037
279.757142857143,0.0895522388059707,0.14757611443727
280.114285714286,0.124378109452737,0.153327766771357
280.426785714286,0.0796019900497522,0.158513989973915
280.426785714286,0.114427860696518,0.158513989973915
280.248214285714,0.179104477611941,0.155529303442554
279.801785714286,0.174129353233831,0.148289050170964
280.828571428571,0.134328358208956,0.165440002016019
280.739285714286,0.179104477611941,0.163878358787676
282.167857142857,0.144278606965175,0.190590944182181
283.373214285714,0.114427860696518,0.216219705981996
283.373214285714,0.149253731343284,0.216219705981996
283.194642857143,0.164179104477612,0.212221729660639
283.908928571429,0.134328358208956,0.228609502449745
284.042857142857,0.169154228855722,0.231814251356235
283.596428571429,0.194029850746269,0.221306050542564
284.266071428571,0.124378109452737,0.237240599929621
284.578571428571,0.124378109452737,0.245025300520665
284.444642857143,0.203980099502488,0.241668352917423
284.0875,0.268656716417911,0.232882500991731
284.221428571429,0.318407960199005,0.236148483610853
284.667857142857,0.328358208955224,0.247307970504426
284.489285714286,0.343283582089553,0.242784823939763
284.846428571429,0.223880597014926,0.251903042894206
285.025,0.18905472636816,0.256570929113213
285.605357142857,0.18407960199005,0.272358457142329
285.9625,0.159203980099503,0.282495980163746
286.542857142857,0.174129353233831,0.299750965518061
286.676785714286,0.208955223880597,0.303862512582626
286.9,0.238805970149254,0.310838518420991
286.766071428571,0.268656716417911,0.306640877859009
286.5875,0.348258706467662,0.301110341252215
286.498214285714,0.407960199004975,0.298391589783906
286.141071428571,0.393034825870647,0.287702128809041
287.257142857143,0.427860696517413,0.322314814246054
287.569642857143,0.437810945273632,0.332669371952478
287.391071428571,0.467661691542289,0.326721227396264
287.569642857143,0.263681592039802,0.332669371952478
287.569642857143,0.238805970149254,0.332669371952478
287.748214285714,0.18407960199005,0.338727389375017
288.194642857143,0.223880597014926,0.354329411479239
288.060714285714,0.27363184079602,0.349586457491984
288.105357142857,0.308457711442787,0.351167442154404
287.301785714286,0.373134328358209,0.323765401999393
287.391071428571,0.597014925373134,0.326721227396264
288.239285714286,0.497512437810946,0.355917314617778
288.105357142857,0.452736318407961,0.351167442154404
288.4625,0.407960199004975,0.36399594017512
288.775,0.45771144278607,0.375616161854673
288.641071428571,0.477611940298508,0.370596593890297
288.998214285714,0.313432835820896,0.384110732225914
289.221428571429,0.238805970149254,0.392783340323916
290.114285714286,0.248756218905473,0.429323946847842
290.3375,0.303482587064677,0.438939500997705
289.935714285714,0.333333333333334,0.421778937080922
289.444642857143,0.328358208955224,0.401637459740816
289.578571428571,0.373134328358209,0.407028248394024
290.069642857143,0.3681592039801,0.4274091704124
289.757142857143,0.407960199004975,0.414347484990388
289.489285714286,0.46268656716418,0.403434389291885
289.176785714286,0.487562189054727,0.391024195291873
289.623214285714,0.502487562189055,0.408841131359517
290.025,0.492537313432836,0.425528380012018
289.891071428571,0.567164179104478,0.419904215615375
290.516071428571,0.492537313432836,0.44676199387977
291.319642857143,0.383084577114428,0.483689722528238
291.141071428571,0.402985074626866,0.475247670105097
291.275,0.308457711442787,0.48156260389572
291.855357142857,0.328358208955224,0.509830372902363
291.632142857143,0.422885572139304,0.498775841956682
291.051785714286,0.497512437810946,0.471081698458664
291.051785714286,0.542288557213931,0.471081698458664
290.917857142857,0.587064676616916,0.464892200082658
291.453571428571,0.597014925373134,0.490087435842523
292.480357142857,0.407960199004975,0.542011675160092
292.748214285714,0.45771144278607,0.556360637038339
293.328571428571,0.437810945273632,0.588680293391257
294.042857142857,0.3681592039801,0.630856451464599
293.373214285714,0.542288557213931,0.591245004699961
292.792857142857,0.601990049751244,0.558771043887906
293.105357142857,0.686567164179105,0.576049976879056
293.417857142857,0.671641791044777,0.593809716008668
293.417857142857,0.701492537313433,0.593809716008668
292.569642857143,0.756218905472637,0.546733506985257
294.221428571429,0.761194029850746,0.641813100012604
294.221428571429,0.791044776119403,0.641813100012604
295.114285714286,0.82089552238806,0.699362287334113
295.560714285714,0.656716417910448,0.729896732931732
294.980357142857,0.701492537313433,0.690464319372387
294.266071428571,0.592039800995025,0.644597657968493
294.176785714286,0.54726368159204,0.639040533405104
294.578571428571,0.527363184079602,0.664300135735011
293.819642857143,1,0.617387244751818
