xaxis,Experiment,model
0.152754790059692,0.0688524590163932,0.170822740119189
0.152754790059692,0.121311475409836,0.170822740119189
0.195026555862374,0.0819672131147537,0.218932076839691
0.218083882663837,0.0950819672131143,0.245311791004675
0.202712331462861,0.127868852459016,0.227714265257511
0.187340780261886,0.140983606557377,0.210160716612591
0.171969229060911,0.186885245901639,0.192650579685373
0.221926770464081,0.147540983606557,0.249719087825812
0.2411412094653,0.186885245901639,0.271790096142923
0.275727199667494,0.160655737704918,0.311687400773866
0.298784526468957,0.180327868852459,0.338408124132151
0.214240994863593,0.232786885245901,0.240909524407762
0.244984097265543,0.291803278688524,0.27621228065022
0.206555219263105,0.377049180327869,0.232110732243214
0.317998965470176,0.304918032786885,0.360747975923308
0.302627414269201,0.383606557377049,0.342870715416045
0.383328058074321,0.265573770491803,0.437209582335024
0.398699609275296,0.370491803278688,0.455314538918856
0.387170945874565,0.422950819672131,0.441733072801224
0.371799394673589,0.475409836065574,0.423660967416274
0.375642282473834,0.455737704918033,0.428173939719362
0.398699609275296,0.495081967213115,0.455314538918856
0.329527628870907,0.547540983606557,0.374185711243126
0.364113619073102,0.613114754098361,0.414641038987737
0.429442711677247,0.6,0.491654106194882
0.429442711677247,0.678688524590164,0.491654106194882
0.487086028680904,0.554098360655738,0.560250330428527
0.483243140880661,0.449180327868852,0.555658077119644
0.490928916481148,0.416393442622951,0.564843664213164
0.467871589679685,0.377049180327869,0.537318398886228
0.560100896885537,0.475409836065574,0.647918004965551
0.575472448086512,0.442622950819672,0.666442605686727
0.583158223686999,0.501639344262295,0.675685807064126
0.544729345684561,0.59344262295082,0.629394883919425
0.563943784685781,0.619672131147541,0.652551916570226
0.598529774887975,0.60655737704918,0.69412125329747
0.640801540690657,0.540983606557377,0.744764726000154
0.598529774887975,0.704918032786885,0.69412125329747
0.506300467682123,0.698360655737705,0.583244225356453
0.529357794483586,0.750819672131147,0.610908854285279
0.575472448086512,0.80327868852459,0.666442605686727
0.606215550488462,0.80327868852459,0.703336598073111
0.636958652890413,0.954098360655738,0.740269777775719
0.690759082093827,0.934426229508197,0.800269127692104
0.717659296695533,1,0.818445680244219
0.717659296695533,0.914754098360656,0.818445680244219
0.683073306493339,0.822950819672131,0.791298370237534
0.69460196989407,0.744262295081967,0.804805543084676
0.698444857694314,0.632786885245901,0.808847548590446
0.690759082093827,0.6,0.800269127692104
0.759931062498216,0.652459016393443,0.688601032862306
0.790674164900166,0.527868852459016,0.476112690987309
0.782988389299678,0.488524590163934,0.526384476812895
0.763773950298459,0.455737704918033,0.663369013564506
0.736873735696753,0.442622950819672,0.793323372639392
0.698444857694314,0.449180327868852,0.808847548590446
0.763773950298459,0.383606557377049,0.663369013564506
0.802202828300897,0.390163934426229,0.411161868565576
0.763773950298459,0.285245901639344,0.663369013564506
0.782988389299678,0.265573770491803,0.526384476812895
0.856003257504311,0.291803278688524,0.206799304982013
0.882903472106017,0.383606557377049,0.142058142435075
0.917489462308212,0.337704918032787,0.0843273012822714
0.902117911107236,0.331147540983606,0.107083661822498
0.871374808705286,0.462295081967213,0.167135693738008
0.859846145304555,0.495081967213115,0.195941408660218
0.863689033104798,0.147540983606557,0.185996914132095
0.836788818503092,0.140983606557377,0.267770684713281
0.913646574507968,0.0950819672131143,0.0897360818164627
0.967447003711382,0.167213114754098,0.0334119425537402
